<svg width="16" height="10" viewBox="0 0 16 10" fill="none" xmlns="http://www.w3.org/2000/svg">
<path d="M7.40234 9.67969C7.71875 9.99609 8.24609 9.99609 8.5625 9.67969L15.418 2.85938C15.7344 2.50781 15.7344 1.98047 15.418 1.66406L14.6094 0.855469C14.293 0.539062 13.7656 0.539062 13.4141 0.855469L8 6.26953L2.55078 0.855469C2.19922 0.539062 1.67188 0.539062 1.35547 0.855469L0.546875 1.66406C0.230469 1.98047 0.230469 2.50781 0.546875 2.85938L7.40234 9.67969Z" fill="white"/>
</svg>
