<svg width="14" height="8" viewBox="0 0 14 8" fill="none" xmlns="http://www.w3.org/2000/svg">
<path d="M6.53516 7.19531C6.78125 7.44141 7.19141 7.44141 7.4375 7.19531L12.7695 1.89062C13.0156 1.61719 13.0156 1.20703 12.7695 0.960938L12.1406 0.332031C11.8945 0.0859375 11.4844 0.0859375 11.2109 0.332031L7 4.54297L2.76172 0.332031C2.48828 0.0859375 2.07812 0.0859375 1.83203 0.332031L1.20312 0.960938C0.957031 1.20703 0.957031 1.61719 1.20312 1.89062L6.53516 7.19531Z" fill="#8A8A8A"/>
</svg>
