<svg width="10" height="9" viewBox="0 0 10 9" fill="none" xmlns="http://www.w3.org/2000/svg">
<path d="M9.39062 7.89062L5.64062 1.375C5.35938 0.890625 4.625 0.875 4.34375 1.375L0.59375 7.89062C0.3125 8.375 0.671875 9 1.25 9H8.73438C9.3125 9 9.67188 8.39062 9.39062 7.89062ZM5 6.53125C5.39062 6.53125 5.71875 6.85938 5.71875 7.25C5.71875 7.65625 5.39062 7.96875 5 7.96875C4.59375 7.96875 4.28125 7.65625 4.28125 7.25C4.28125 6.85938 4.59375 6.53125 5 6.53125ZM4.3125 3.95312C4.29688 3.84375 4.39062 3.75 4.5 3.75H5.48438C5.59375 3.75 5.6875 3.84375 5.67188 3.95312L5.5625 6.07812C5.54688 6.1875 5.46875 6.25 5.375 6.25H4.60938C4.51562 6.25 4.4375 6.1875 4.42188 6.07812L4.3125 3.95312Z" fill="#D81023"/>
</svg>
