<svg width="15" height="19" viewBox="0 0 15 19" fill="none" xmlns="http://www.w3.org/2000/svg">
<path d="M14.0039 3.94141L10.5586 0.496094C10.3828 0.355469 10.1719 0.25 9.96094 0.25H9.75V4.75H14.25V4.53906C14.25 4.32812 14.1445 4.11719 14.0039 3.94141ZM8.625 5.03125V0.25H1.59375C1.10156 0.25 0.75 0.636719 0.75 1.09375V17.4062C0.75 17.8984 1.10156 18.25 1.59375 18.25H13.4062C13.8633 18.25 14.25 17.8984 14.25 17.4062V5.875H9.46875C8.97656 5.875 8.625 5.52344 8.625 5.03125ZM3 2.78125C3 2.64062 3.10547 2.5 3.28125 2.5H6.09375C6.23438 2.5 6.375 2.64062 6.375 2.78125V3.34375C6.375 3.51953 6.23438 3.625 6.09375 3.625H3.28125C3.10547 3.625 3 3.51953 3 3.34375V2.78125ZM3 5.59375V5.03125C3 4.89062 3.10547 4.75 3.28125 4.75H6.09375C6.23438 4.75 6.375 4.89062 6.375 5.03125V5.59375C6.375 5.76953 6.23438 5.875 6.09375 5.875H3.28125C3.10547 5.875 3 5.76953 3 5.59375ZM8.0625 14.875V15.7188C8.0625 15.8945 7.92188 16 7.78125 16H7.21875C7.04297 16 6.9375 15.8945 6.9375 15.7188V14.875C6.51562 14.875 6.12891 14.7344 5.8125 14.4883C5.67188 14.3828 5.67188 14.1719 5.8125 14.0664L6.19922 13.6797C6.30469 13.5742 6.44531 13.5742 6.55078 13.6445C6.69141 13.7148 6.86719 13.75 7.00781 13.75H7.99219C8.23828 13.75 8.41406 13.5742 8.41406 13.293C8.41406 13.082 8.30859 12.9062 8.09766 12.8711L6.51562 12.3789C5.88281 12.168 5.42578 11.5703 5.42578 10.8672C5.42578 9.98828 6.09375 9.28516 6.90234 9.28516V8.40625C6.90234 8.26562 7.04297 8.125 7.18359 8.125H7.74609C7.92188 8.125 8.02734 8.26562 8.02734 8.40625V9.28516C8.44922 9.28516 8.83594 9.42578 9.15234 9.67188C9.29297 9.77734 9.29297 9.98828 9.15234 10.0938L8.76562 10.4805C8.66016 10.5859 8.51953 10.5859 8.41406 10.5156C8.27344 10.4453 8.09766 10.375 7.95703 10.375H6.97266C6.72656 10.375 6.55078 10.5859 6.55078 10.8672C6.55078 11.0781 6.65625 11.2539 6.86719 11.2891L8.44922 11.7812C9.08203 11.957 9.53906 12.5898 9.53906 13.293C9.53906 14.1719 8.87109 14.875 8.0625 14.875Z" fill="#42484E"/>
</svg>
